%YAML 1.1
%TAG !u! tag:unity3d.com,2011:
--- !u!1 &7652128185699972112
GameObject:
  m_ObjectHideFlags: 0
  m_CorrespondingSourceObject: {fileID: 0}
  m_PrefabInstance: {fileID: 0}
  m_PrefabAsset: {fileID: 0}
  serializedVersion: 6
  m_Component:
  - component: {fileID: 4095539173696073082}
  m_Layer: 0
  m_Name: Tree
  m_TagString: Untagged
  m_Icon: {fileID: 0}
  m_NavMeshLayer: 0
  m_StaticEditorFlags: 2147483647
  m_IsActive: 1
--- !u!4 &4095539173696073082
Transform:
  m_ObjectHideFlags: 0
  m_CorrespondingSourceObject: {fileID: 0}
  m_PrefabInstance: {fileID: 0}
  m_PrefabAsset: {fileID: 0}
  m_GameObject: {fileID: 7652128185699972112}
  m_LocalRotation: {x: 0, y: 0, z: 0, w: 1}
  m_LocalPosition: {x: 0, y: 0, z: 0}
  m_LocalScale: {x: 1, y: 1, z: 1}
  m_Children:
  - {fileID: 8724669813227863837}
  m_Father: {fileID: 0}
  m_RootOrder: 0
  m_LocalEulerAnglesHint: {x: 0, y: 0, z: 0}
--- !u!64 &8946761368064409965
MeshCollider:
  m_ObjectHideFlags: 0
  m_CorrespondingSourceObject: {fileID: 0}
  m_PrefabInstance: {fileID: 0}
  m_PrefabAsset: {fileID: 0}
  m_GameObject: {fileID: 8241464537098053031}
  m_Material: {fileID: 0}
  m_IsTrigger: 0
  m_Enabled: 1
  serializedVersion: 4
  m_Convex: 0
  m_CookingOptions: 30
  m_Mesh: {fileID: -5495902117074765545, guid: 40e9e4717505e9048aba2d7dc30f7e20, type: 3}
--- !u!1001 &9124004245643221238
PrefabInstance:
  m_ObjectHideFlags: 0
  serializedVersion: 2
  m_Modification:
    m_TransformParent: {fileID: 4095539173696073082}
    m_Modifications:
    - target: {fileID: -8679921383154817045, guid: 40e9e4717505e9048aba2d7dc30f7e20, type: 3}
      propertyPath: m_RootOrder
      value: 0
      objectReference: {fileID: 0}
    - target: {fileID: -8679921383154817045, guid: 40e9e4717505e9048aba2d7dc30f7e20, type: 3}
      propertyPath: m_LocalPosition.x
      value: -0
      objectReference: {fileID: 0}
    - target: {fileID: -8679921383154817045, guid: 40e9e4717505e9048aba2d7dc30f7e20, type: 3}
      propertyPath: m_LocalPosition.y
      value: 2.1
      objectReference: {fileID: 0}
    - target: {fileID: -8679921383154817045, guid: 40e9e4717505e9048aba2d7dc30f7e20, type: 3}
      propertyPath: m_LocalPosition.z
      value: 0
      objectReference: {fileID: 0}
    - target: {fileID: -8679921383154817045, guid: 40e9e4717505e9048aba2d7dc30f7e20, type: 3}
      propertyPath: m_LocalRotation.w
      value: 0.7071067
      objectReference: {fileID: 0}
    - target: {fileID: -8679921383154817045, guid: 40e9e4717505e9048aba2d7dc30f7e20, type: 3}
      propertyPath: m_LocalRotation.x
      value: -0.7071068
      objectReference: {fileID: 0}
    - target: {fileID: -8679921383154817045, guid: 40e9e4717505e9048aba2d7dc30f7e20, type: 3}
      propertyPath: m_LocalRotation.y
      value: 0
      objectReference: {fileID: 0}
    - target: {fileID: -8679921383154817045, guid: 40e9e4717505e9048aba2d7dc30f7e20, type: 3}
      propertyPath: m_LocalRotation.z
      value: -0
      objectReference: {fileID: 0}
    - target: {fileID: -8679921383154817045, guid: 40e9e4717505e9048aba2d7dc30f7e20, type: 3}
      propertyPath: m_LocalEulerAnglesHint.x
      value: 0
      objectReference: {fileID: 0}
    - target: {fileID: -8679921383154817045, guid: 40e9e4717505e9048aba2d7dc30f7e20, type: 3}
      propertyPath: m_LocalEulerAnglesHint.y
      value: 0
      objectReference: {fileID: 0}
    - target: {fileID: -8679921383154817045, guid: 40e9e4717505e9048aba2d7dc30f7e20, type: 3}
      propertyPath: m_LocalEulerAnglesHint.z
      value: 0
      objectReference: {fileID: 0}
    - target: {fileID: 919132149155446097, guid: 40e9e4717505e9048aba2d7dc30f7e20, type: 3}
      propertyPath: m_Name
      value: tree
      objectReference: {fileID: 0}
    - target: {fileID: 919132149155446097, guid: 40e9e4717505e9048aba2d7dc30f7e20, type: 3}
      propertyPath: m_StaticEditorFlags
      value: 2147483647
      objectReference: {fileID: 0}
    m_RemovedComponents: []
  m_SourcePrefab: {fileID: 100100000, guid: 40e9e4717505e9048aba2d7dc30f7e20, type: 3}
--- !u!1 &8241464537098053031 stripped
GameObject:
  m_CorrespondingSourceObject: {fileID: 919132149155446097, guid: 40e9e4717505e9048aba2d7dc30f7e20, type: 3}
  m_PrefabInstance: {fileID: 9124004245643221238}
  m_PrefabAsset: {fileID: 0}
--- !u!4 &8724669813227863837 stripped
Transform:
  m_CorrespondingSourceObject: {fileID: -8679921383154817045, guid: 40e9e4717505e9048aba2d7dc30f7e20, type: 3}
  m_PrefabInstance: {fileID: 9124004245643221238}
  m_PrefabAsset: {fileID: 0}
